<svg width="150" height="46" viewBox="0 0 150 46" fill="none" xmlns="http://www.w3.org/2000/svg">
<path d="M24.9121 35V22.0801C24.9121 21.916 24.9121 21.5645 24.9121 21.0254C24.9238 20.4746 24.9297 19.8477 24.9297 19.1445C24.9414 18.4414 24.9473 17.709 24.9473 16.9473C24.959 16.1738 24.9707 15.4766 24.9824 14.8555L24.5605 14.7852L17.3008 35H14.2422L7.22852 14.9785L6.78906 15.0488C6.80078 15.6699 6.8125 16.3613 6.82422 17.123C6.83594 17.873 6.84766 18.5996 6.85938 19.3027C6.87109 19.9941 6.87695 20.6094 6.87695 21.1484C6.88867 21.6758 6.89453 22.0273 6.89453 22.2031V35H3.57227V10.1797H9.10938L15.8594 30.5703L23.0137 10.1797H28.3398V35H24.9121ZM34.1582 18.8457C34.627 18.5293 35.1309 18.2422 35.6699 17.9844C36.2207 17.7266 36.7832 17.5039 37.3574 17.3164C37.9434 17.1172 38.5293 16.9648 39.1152 16.8594C39.7012 16.7539 40.2695 16.7012 40.8203 16.7012C41.6641 16.7012 42.4609 16.8125 43.2109 17.0352C43.9727 17.2461 44.6348 17.5859 45.1973 18.0547C45.7715 18.5117 46.2227 19.1035 46.5508 19.8301C46.8789 20.5566 47.043 21.4355 47.043 22.4668V29.709C47.043 30.5059 47.0605 31.2266 47.0957 31.8711C47.1309 32.5156 47.1777 33.0723 47.2363 33.541C47.2949 34.0918 47.3652 34.5781 47.4473 35H44.4766C44.4414 34.8008 44.4062 34.4316 44.3711 33.8926C44.3477 33.3535 44.3242 32.75 44.3008 32.082C43.9141 32.7383 43.4922 33.2773 43.0352 33.6992C42.5781 34.1094 42.1035 34.4375 41.6113 34.6836C41.1191 34.9297 40.6152 35.0996 40.0996 35.1934C39.584 35.2871 39.0742 35.334 38.5703 35.334C37.6914 35.334 36.8945 35.2168 36.1797 34.9824C35.4648 34.7363 34.8555 34.3848 34.3516 33.9277C33.8594 33.4707 33.4785 32.9199 33.209 32.2754C32.9395 31.6309 32.8047 30.9043 32.8047 30.0957C32.8047 29.709 32.8457 29.2988 32.9277 28.8652C33.0215 28.4316 33.168 28.0039 33.3672 27.582C33.5664 27.1602 33.8301 26.7559 34.1582 26.3691C34.4863 25.9824 34.8906 25.6367 35.3711 25.332C35.8867 25.0039 36.4551 24.752 37.0762 24.5762C37.6973 24.3887 38.3359 24.2539 38.9922 24.1719C39.6602 24.0781 40.3281 24.0254 40.9961 24.0137C41.6641 23.9902 42.3086 23.9785 42.9297 23.9785H43.8789V22.6777C43.8789 22.0332 43.7969 21.4941 43.6328 21.0605C43.4688 20.6152 43.2402 20.2637 42.9473 20.0059C42.6543 19.7363 42.3145 19.543 41.9277 19.4258C41.541 19.3086 41.1309 19.25 40.6973 19.25C40.2168 19.25 39.7188 19.3086 39.2031 19.4258C38.6875 19.5312 38.1836 19.6719 37.6914 19.8477C37.1992 20.0234 36.7305 20.2168 36.2852 20.4277C35.8516 20.6387 35.4648 20.8496 35.125 21.0605L34.1582 18.8457ZM42.8066 31.3086C43.0293 31.0508 43.2051 30.7637 43.334 30.4473C43.4746 30.1309 43.5801 29.7734 43.6504 29.375C43.7324 28.9766 43.7852 28.5312 43.8086 28.0391C43.8438 27.5469 43.8613 26.9902 43.8613 26.3691H43.3516C42.543 26.3691 41.7051 26.3984 40.8379 26.457C39.9824 26.5156 39.1914 26.668 38.4648 26.9141C37.75 27.1602 37.1582 27.541 36.6895 28.0566C36.2324 28.5605 36.0039 29.2578 36.0039 30.1484C36.0039 30.4766 36.0566 30.7988 36.1621 31.1152C36.2676 31.4199 36.4316 31.6953 36.6543 31.9414C36.8887 32.1875 37.1758 32.3867 37.5156 32.5391C37.8672 32.6914 38.2891 32.7676 38.7812 32.7676C39.625 32.7676 40.4043 32.6445 41.1191 32.3984C41.834 32.1523 42.3965 31.7891 42.8066 31.3086ZM67.2754 35H63.5664L58.7148 26.9141H55.8496V35H52.5098V10.1797H55.8496V24.1895H57.502C57.7363 24.1895 57.9824 24.1895 58.2402 24.1895C58.498 24.1777 58.7559 24.1719 59.0137 24.1719C59.4941 23.7734 59.9395 23.3398 60.3496 22.8711C60.7598 22.3906 61.1406 21.8691 61.4922 21.3066C61.8438 20.7324 62.166 20.1055 62.459 19.4258C62.7637 18.7461 63.0508 17.9375 63.3203 17H66.7656C66.5547 17.9258 66.2676 18.8047 65.9043 19.6367C65.5527 20.457 65.1426 21.248 64.6738 22.0098C64.2168 22.7715 63.7129 23.4805 63.1621 24.1367C62.6113 24.793 62.0371 25.3496 61.4395 25.8066L67.2754 35ZM77.4707 22.291L83.957 10.1797H87.8242L79.1055 25.3848V35H75.5898V25.3848L66.8711 10.1797H70.9492L77.4707 22.291ZM101.359 33.541C100.984 33.7637 100.586 33.9863 100.164 34.209C99.7539 34.4199 99.291 34.6074 98.7754 34.7715C98.2598 34.9355 97.6797 35.0703 97.0352 35.1758C96.4023 35.2812 95.6816 35.334 94.873 35.334C93.6426 35.334 92.5293 35.1289 91.5332 34.7188C90.5488 34.3086 89.7051 33.7109 89.002 32.9258C88.3105 32.1289 87.7773 31.1562 87.4023 30.0078C87.0273 28.8477 86.8398 27.5234 86.8398 26.0352C86.8398 24.793 86.9922 23.6094 87.2969 22.4844C87.6016 21.3594 88.0645 20.3691 88.6855 19.5137C89.3184 18.6582 90.1211 17.9785 91.0938 17.4746C92.0664 16.959 93.2207 16.7012 94.5566 16.7012C95.8223 16.7012 96.9121 16.9238 97.8262 17.3691C98.7402 17.8145 99.4902 18.418 100.076 19.1797C100.674 19.9297 101.113 20.8145 101.395 21.834C101.676 22.8418 101.816 23.9141 101.816 25.0508V26.5098H90.1094C90.1211 27.3184 90.209 28.1035 90.373 28.8652C90.5488 29.6152 90.8242 30.2832 91.1992 30.8691C91.5742 31.4434 92.0664 31.9062 92.6758 32.2578C93.2852 32.5977 94.041 32.7676 94.9434 32.7676C96.0215 32.7676 96.9941 32.6328 97.8613 32.3633C98.7402 32.0938 99.5723 31.7129 100.357 31.2207L101.359 33.541ZM94.4863 19.2676C93.9238 19.2676 93.3965 19.3555 92.9043 19.5312C92.4238 19.6953 91.9961 19.959 91.6211 20.3223C91.2578 20.6738 90.9531 21.125 90.707 21.6758C90.4727 22.2148 90.3145 22.8594 90.2324 23.6094C90.2207 23.668 90.2148 23.75 90.2148 23.8555C90.2148 23.9609 90.2148 24.0723 90.2148 24.1895H98.3711C98.3477 23.5449 98.2715 22.9238 98.1426 22.3262C98.0137 21.7285 97.8027 21.207 97.5098 20.7617C97.2168 20.3047 96.8242 19.9414 96.332 19.6719C95.8398 19.4023 95.2246 19.2676 94.4863 19.2676ZM120.994 35H117.285L112.434 26.9141H109.568V35H106.229V10.1797H109.568V24.1895H111.221C111.455 24.1895 111.701 24.1895 111.959 24.1895C112.217 24.1777 112.475 24.1719 112.732 24.1719C113.213 23.7734 113.658 23.3398 114.068 22.8711C114.479 22.3906 114.859 21.8691 115.211 21.3066C115.562 20.7324 115.885 20.1055 116.178 19.4258C116.482 18.7461 116.77 17.9375 117.039 17H120.484C120.273 17.9258 119.986 18.8047 119.623 19.6367C119.271 20.457 118.861 21.248 118.393 22.0098C117.936 22.7715 117.432 23.4805 116.881 24.1367C116.33 24.793 115.756 25.3496 115.158 25.8066L120.994 35Z" fill="black"/>
<path d="M138 6L137.444 6.18543C137.444 6.18543 134.438 7.21854 131.612 10.2649C128.779 13.3113 126.02 18.457 126 26.4371C125.993 28.7152 126.81 30.6225 128.022 32C129.228 33.3709 130.754 34.2384 132.214 34.8079C133.761 35.4238 135.201 35.702 136.286 35.8477V40H139.714V35.8477C140.799 35.702 142.239 35.4238 143.786 34.8079C145.246 34.2384 146.772 33.3709 147.984 32C149.19 30.6225 150.007 28.7152 150 26.4371C149.98 18.457 147.221 13.3113 144.395 10.2649C141.562 7.21854 138.556 6.18543 138.556 6.18543L138 6ZM136.286 10.649V32.4106C135.475 32.2781 134.484 32.0596 133.487 31.6623C132.368 31.2185 131.33 30.5894 130.607 29.7748C129.884 28.9536 129.422 27.9669 129.429 26.4371C129.449 19.2119 131.833 15.0397 134.129 12.5563C134.953 11.6821 135.67 11.0861 136.286 10.649ZM139.714 10.649C140.33 11.0861 141.047 11.6821 141.864 12.5563C142.835 13.6026 143.812 14.9735 144.623 16.7285C144.254 17.3046 143.672 17.7086 142.902 18.0397C141.998 18.4238 140.859 18.6225 139.714 18.7285V10.649ZM145.319 18.457C145.748 19.6887 146.083 21.0861 146.297 22.6689C145.312 24.0199 143.672 24.7616 142.025 25.1656C141.174 25.3709 140.391 25.4702 139.714 25.5298V20.4305C141.02 20.3377 142.379 20.106 143.578 19.5894C144.221 19.3179 144.817 18.9404 145.319 18.457ZM146.504 24.9007C146.531 25.404 146.571 25.9007 146.571 26.4371C146.578 27.9669 146.116 28.9536 145.393 29.7748C144.67 30.5894 143.632 31.2185 142.513 31.6623C141.516 32.0596 140.525 32.2781 139.714 32.4106V27.2252C140.491 27.1656 141.422 27.0596 142.44 26.8079C143.799 26.4768 145.292 25.8874 146.504 24.9007Z" fill="black"/>
</svg>
